<svg version="1.1" baseProfile="full" width="724.0" height="631.0" viewbox="0 0 724 631" xmlns="http://www.w3.org/2000/svg" xmlns:xlink="http://www.w3.org/1999/xlink" xmlns:ev="http://www.w3.org/2001/xml-events">
<desc >#.interface: fill=lightblue
#.enumeration: fill=lightgreen
#.type: fill=lightgray
[Course|+id: number;+subject: Subject;+subjectId: number;+teacher: Teacher;+teacherId: number;+schoolClass: SchoolClass;+schoolClassId: number;+numberOfhours: number;+processed: boolean;+deleted: boolean;+updatedAt: boolean;+updatedBy: Teacher|]
[Course] 0..* -  [Subject]
[Course]  -  [Teacher]
[Course] 0..* -  1 [SchoolClass]
[Course] 0..* -  1 [Teacher]
[SchoolClass|+id: number;+name: string;+courses: Course\[\];+typeOfSchool: TypeOfSchool|]
[SchoolClass] 0..* -  [TypeOfSchool]
[Subject|+id: number;+name: string;+courses: Course\[\]|]
[Teacher|+id: number;+firstname: string;+lastname: string;+short: string;+isAdmin: string;+password: string;+courses: Course\[\]|]
[TypeOfSchool|+id: number;+name: string;+schoolClasses: SchoolClass\[\]|]</desc>
<g stroke-width="1.0" text-align="left" font="12pt Helvetica, Arial, sans-serif" font-size="12pt" font-family="Helvetica" font-weight="normal" font-style="normal">
<g font-family="Helvetica" font-size="12pt" font-weight="bold" font-style="normal" stroke-width="3.0" stroke-linejoin="round" stroke-linecap="round" stroke="#33322E">
<g stroke="transparent" fill="transparent">
<rect x="0.0" y="0.0" height="631.0" width="724.0" stroke="none"></rect>
</g>
<g transform="translate(8, 8)" fill="#33322E">
<g transform="translate(20, 20)" fill="#33322E" font-family="Helvetica" font-size="12pt" font-weight="normal" font-style="normal">
<text x="182.0" y="214.3" stroke="none">0..*</text>
<path d="M174.0 194.3 L83 255 L83 305 L83.0 305.0 " fill="none"></path>
<path d="M218.1 235.0 L206 255 L222.6 275 L222.6 275.0 " fill="none"></path>
<text x="369.0" y="200.9" stroke="none">0..*1</text>
<path d="M404.0 180.9 L538.5 255 L538.5 297.5 L538.5 297.5 " fill="none"></path>
<text x="343.5" y="255.0" stroke="none">0..*</text>
<path d="M378.5 235.0 L393.75 255 L372 275.763723150358 L372.0 275.8 " fill="none"></path>
<text x="546.5" y="432.5" stroke="none">0..*</text>
<path d="M538.5 412.5 L538.5 455 L538.5 475 L538.5 475.0 " fill="none"></path>
<g data-name="Course">
<g fill="#eee8d5" stroke="#33322E" data-name="Course">
<rect x="174.0" y="0.0" height="235.0" width="230.0" data-name="Course"></rect>
<path d="M174.0 31.0 L404.0 31.0" fill="none" data-name="Course"></path>
<path d="M174.0 227.0 L404.0 227.0" fill="none" data-name="Course"></path>
</g>
<g transform="translate(174, 0)" font-family="Helvetica" font-size="12pt" font-weight="bold" font-style="normal" data-name="Course">
<g transform="translate(8, 8)" fill="#33322E" text-align="center" data-name="Course">
<a id="course.ts.Course" xlink:href="course.ts"><text x="107.0" y="13.5" stroke="none" text-anchor="middle" data-name="Course">Course</text></a>

</g>
</g>
<g transform="translate(174, 31)" font-family="Helvetica" font-size="12pt" font-weight="normal" font-style="normal" data-name="Course">
<g transform="translate(8, 8)" fill="#33322E" text-align="left" data-name="Course">
<text x="0.0" y="13.5" stroke="none" data-name="Course">+id: number</text>
<text x="0.0" y="28.5" stroke="none" data-name="Course">+subject: Subject</text>
<text x="0.0" y="43.5" stroke="none" data-name="Course">+subjectId: number</text>
<text x="0.0" y="58.5" stroke="none" data-name="Course">+teacher: Teacher</text>
<text x="0.0" y="73.5" stroke="none" data-name="Course">+teacherId: number</text>
<text x="0.0" y="88.5" stroke="none" data-name="Course">+schoolClass: SchoolClass</text>
<text x="0.0" y="103.5" stroke="none" data-name="Course">+schoolClassId: number</text>
<text x="0.0" y="118.5" stroke="none" data-name="Course">+numberOfhours: number</text>
<text x="0.0" y="133.5" stroke="none" data-name="Course">+processed: boolean</text>
<text x="0.0" y="148.5" stroke="none" data-name="Course">+deleted: boolean</text>
<text x="0.0" y="163.5" stroke="none" data-name="Course">+updatedAt: boolean</text>
<text x="0.0" y="178.5" stroke="none" data-name="Course">+updatedBy: Teacher</text>

</g>
</g>
<g transform="translate(174, 227)" font-family="Helvetica" font-size="12pt" font-weight="normal" font-style="normal" data-name="Course">
<g transform="translate(8, 8)" fill="#33322E" data-name="Course">

</g>
</g>
</g>
<g data-name="Subject">
<g fill="#eee8d5" stroke="#33322E" data-name="Subject">
<rect x="0.0" y="305.0" height="100.0" width="166.0" data-name="Subject"></rect>
<path d="M0.0 336.0 L166.0 336.0" fill="none" data-name="Subject"></path>
<path d="M0.0 397.0 L166.0 397.0" fill="none" data-name="Subject"></path>
</g>
<g transform="translate(0, 305)" font-family="Helvetica" font-size="12pt" font-weight="bold" font-style="normal" data-name="Subject">
<g transform="translate(8, 8)" fill="#33322E" text-align="center" data-name="Subject">
<a id="subject.ts.Subject" xlink:href="subject.ts"><text x="75.0" y="13.5" stroke="none" text-anchor="middle" data-name="Subject">Subject</text></a>

</g>
</g>
<g transform="translate(0, 336)" font-family="Helvetica" font-size="12pt" font-weight="normal" font-style="normal" data-name="Subject">
<g transform="translate(8, 8)" fill="#33322E" text-align="left" data-name="Subject">
<text x="0.0" y="13.5" stroke="none" data-name="Subject">+id: number</text>
<text x="0.0" y="28.5" stroke="none" data-name="Subject">+name: string</text>
<text x="0.0" y="43.5" stroke="none" data-name="Subject">+courses: Course[]</text>

</g>
</g>
<g transform="translate(0, 397)" font-family="Helvetica" font-size="12pt" font-weight="normal" font-style="normal" data-name="Subject">
<g transform="translate(8, 8)" fill="#33322E" data-name="Subject">

</g>
</g>
</g>
<g data-name="Teacher">
<g fill="#eee8d5" stroke="#33322E" data-name="Teacher">
<rect x="206.0" y="275.0" height="160.0" width="166.0" data-name="Teacher"></rect>
<path d="M206.0 306.0 L372.0 306.0" fill="none" data-name="Teacher"></path>
<path d="M206.0 427.0 L372.0 427.0" fill="none" data-name="Teacher"></path>
</g>
<g transform="translate(206, 275)" font-family="Helvetica" font-size="12pt" font-weight="bold" font-style="normal" data-name="Teacher">
<g transform="translate(8, 8)" fill="#33322E" text-align="center" data-name="Teacher">
<a id="teacher.ts.Teacher" xlink:href="teacher.ts"><text x="75.0" y="13.5" stroke="none" text-anchor="middle" data-name="Teacher">Teacher</text></a>

</g>
</g>
<g transform="translate(206, 306)" font-family="Helvetica" font-size="12pt" font-weight="normal" font-style="normal" data-name="Teacher">
<g transform="translate(8, 8)" fill="#33322E" text-align="left" data-name="Teacher">
<text x="0.0" y="13.5" stroke="none" data-name="Teacher">+id: number</text>
<text x="0.0" y="28.5" stroke="none" data-name="Teacher">+firstname: string</text>
<text x="0.0" y="43.5" stroke="none" data-name="Teacher">+lastname: string</text>
<text x="0.0" y="58.5" stroke="none" data-name="Teacher">+short: string</text>
<text x="0.0" y="73.5" stroke="none" data-name="Teacher">+isAdmin: string</text>
<text x="0.0" y="88.5" stroke="none" data-name="Teacher">+password: string</text>
<text x="0.0" y="103.5" stroke="none" data-name="Teacher">+courses: Course[]</text>

</g>
</g>
<g transform="translate(206, 427)" font-family="Helvetica" font-size="12pt" font-weight="normal" font-style="normal" data-name="Teacher">
<g transform="translate(8, 8)" fill="#33322E" data-name="Teacher">

</g>
</g>
</g>
<g data-name="SchoolClass">
<g fill="#eee8d5" stroke="#33322E" data-name="SchoolClass">
<rect x="412.0" y="297.5" height="115.0" width="253.0" data-name="SchoolClass"></rect>
<path d="M412.0 328.5 L665.0 328.5" fill="none" data-name="SchoolClass"></path>
<path d="M412.0 404.5 L665.0 404.5" fill="none" data-name="SchoolClass"></path>
</g>
<g transform="translate(412, 297.5)" font-family="Helvetica" font-size="12pt" font-weight="bold" font-style="normal" data-name="SchoolClass">
<g transform="translate(8, 8)" fill="#33322E" text-align="center" data-name="SchoolClass">
<a id="schoolclass.ts.SchoolClass" xlink:href="schoolclass.ts"><text x="118.5" y="13.5" stroke="none" text-anchor="middle" data-name="SchoolClass">SchoolClass</text></a>

</g>
</g>
<g transform="translate(412, 328.5)" font-family="Helvetica" font-size="12pt" font-weight="normal" font-style="normal" data-name="SchoolClass">
<g transform="translate(8, 8)" fill="#33322E" text-align="left" data-name="SchoolClass">
<text x="0.0" y="13.5" stroke="none" data-name="SchoolClass">+id: number</text>
<text x="0.0" y="28.5" stroke="none" data-name="SchoolClass">+name: string</text>
<text x="0.0" y="43.5" stroke="none" data-name="SchoolClass">+courses: Course[]</text>
<text x="0.0" y="58.5" stroke="none" data-name="SchoolClass">+typeOfSchool: TypeOfSchool</text>

</g>
</g>
<g transform="translate(412, 404.5)" font-family="Helvetica" font-size="12pt" font-weight="normal" font-style="normal" data-name="SchoolClass">
<g transform="translate(8, 8)" fill="#33322E" data-name="SchoolClass">

</g>
</g>
</g>
<g data-name="TypeOfSchool">
<g fill="#eee8d5" stroke="#33322E" data-name="TypeOfSchool">
<rect x="409.0" y="475.0" height="100.0" width="259.0" data-name="TypeOfSchool"></rect>
<path d="M409.0 506.0 L668.0 506.0" fill="none" data-name="TypeOfSchool"></path>
<path d="M409.0 567.0 L668.0 567.0" fill="none" data-name="TypeOfSchool"></path>
</g>
<g transform="translate(409, 475)" font-family="Helvetica" font-size="12pt" font-weight="bold" font-style="normal" data-name="TypeOfSchool">
<g transform="translate(8, 8)" fill="#33322E" text-align="center" data-name="TypeOfSchool">
<a id="typeofschool.ts.TypeOfSchool" xlink:href="typeofschool.ts"><text x="121.5" y="13.5" stroke="none" text-anchor="middle" data-name="TypeOfSchool">TypeOfSchool</text></a>

</g>
</g>
<g transform="translate(409, 506)" font-family="Helvetica" font-size="12pt" font-weight="normal" font-style="normal" data-name="TypeOfSchool">
<g transform="translate(8, 8)" fill="#33322E" text-align="left" data-name="TypeOfSchool">
<text x="0.0" y="13.5" stroke="none" data-name="TypeOfSchool">+id: number</text>
<text x="0.0" y="28.5" stroke="none" data-name="TypeOfSchool">+name: string</text>
<text x="0.0" y="43.5" stroke="none" data-name="TypeOfSchool">+schoolClasses: SchoolClass[]</text>

</g>
</g>
<g transform="translate(409, 567)" font-family="Helvetica" font-size="12pt" font-weight="normal" font-style="normal" data-name="TypeOfSchool">
<g transform="translate(8, 8)" fill="#33322E" data-name="TypeOfSchool">

</g>
</g>
</g>
</g>
</g>
</g>
</g>
</svg>
